…
bootstraps = 
  tibble(strap_number = 1:5000) %>% 
  mutate(
    sample_strap = map(strap_number, ~bootstrap_sample(df = weather_df))
  )

bootstraps %>% 
  slice(1:3) %>% 
  mutate(sample_strap = map(sample_strap, arrange, tmax)) %>%  
  pull(sample_strap)
```

    ## [[1]]
    ## # A tibble: 365 × 6
    ##    name           id          date        prcp  tmax  tmin
    ##    <chr>          <chr>       <date>     <dbl> <dbl> <dbl>
    ##  1 CentralPark_NY USW00094728 2022-12-24     0  -9.3 -13.8
    ##  2 CentralPark_NY USW00094728 2022-12-24     0  -9.3 -13.8
    ##  3 CentralPark_NY USW00094728 2022-01-15     0  -6   -12.1
    ##  4 CentralPark_NY USW00094728 2022-01-11     0  -4.3  -9.3
    ##  5 CentralPark_NY USW00094728 2022-01-30     0  -3.2 -11  
    ##  6 CentralPark_NY USW00094728 2022-02-05     0  -2.7  -7.1
    ##  7 CentralPark_NY USW00094728 2022-12-25     0  -2.1  -9.9
    ##  8 CentralPark_NY USW00094728 2022-12-25     0  -2.1  -9.9
    ##  9 CentralPark_NY USW00094728 2022-01-22     0  -1.6 -10.5
    ## 10 CentralPark_NY USW00094728 2022-02-06     0  -1    -8.2
    ## # ℹ 355 more rows
    ## 
    ## [[2]]
    ## # A tibble: 365 × 6
    ##    name           id          date        prcp  tmax  tmin
    ##    <chr>          <chr>       <date>     <dbl> <dbl> <dbl>
    ##  1 CentralPark_NY USW00094728 2022-01-15     0  -6   -12.1
    ##  2 CentralPark_NY USW00094728 2022-01-21     0  -5.5  -9.9
    ##  3 CentralPark_NY USW00094728 2022-01-11     0  -4.3  -9.3
    ##  4 CentralPark_NY USW00094728 2022-01-11     0  -4.3  -9.3
    ##  5 CentralPark_NY USW00094728 2022-02-14     0  -3.8  -8.8
    ##  6 CentralPark_NY USW00094728 2022-02-14     0  -3.8  -8.8
    ##  7 CentralPark_NY USW00094728 2022-02-14     0  -3.8  -8.8
    ##  8 CentralPark_NY USW00094728 2022-01-30     0  -3.2 -11  
    ##  9 CentralPark_NY USW00094728 2022-12-25     0  -2.1  -9.9
    ## 10 CentralPark_NY USW00094728 2022-12-25     0  -2.1  -9.9
    ## # ℹ 355 more rows
    ## 
    ## [[3]]
    ## # A tibble: 365 × 6
    ##    name           id          date        prcp  tmax  tmin
    ##    <chr>          <chr>       <date>     <dbl> <dbl> <dbl>
    ##  1 CentralPark_NY USW00094728 2022-01-11     0  -4.3  -9.3
    ##  2 CentralPark_NY USW00094728 2022-01-11     0  -4.3  -9.3
    ##  3 CentralPark_NY USW00094728 2022-01-11     0  -4.3  -9.3
    ##  4 CentralPark_NY USW00094728 2022-02-14     0  -3.8  -8.8
    ##  5 CentralPark_NY USW00094728 2022-01-26     0  -2.1  -6.6
    ##  6 CentralPark_NY USW00094728 2022-01-29   196  -1.6 -11  
    ##  7 CentralPark_NY USW00094728 2022-01-29   196  -1.6 -11  
    ##  8 CentralPark_NY USW00094728 2022-01-29   196  -1.6 -11  
    ##  9 CentralPark_NY USW00094728 2022-02-06     0  -1    -8.2
    ## 10 CentralPark_NY USW00094728 2022-01-31     0  -0.5  -6  
    ## # ℹ 355 more rows
…
